20
4
1 0 1 0
0 1 0 0
1 0 1 0
1 0 0 1
2 2
8
1 1 0 1 0 0 1 1
0 1 0 0 1 1 1 1
0 1 1 1 0 1 0 0
1 0 0 1 1 0 1 0
0 0 0 1 1 1 1 0
0 1 1 1 0 1 0 1
1 1 1 1 1 1 1 1
0 1 0 0 1 0 1 1
6 6
4
1 1 1 0
1 1 0 0
0 1 1 1
0 0 0 1
1 1
9
1 1 1 0 0 0 0 1 1
1 1 0 1 0 0 1 0 1
1 1 1 0 1 1 1 0 1
0 1 1 1 1 1 1 1 1
1 0 1 1 1 0 1 0 0
1 1 0 1 0 1 1 0 0
1 1 0 0 1 0 1 1 1
1 1 1 0 0 0 1 1 1
0 1 1 1 1 1 1 1 1
4 4
5
1 1 1 1 1
1 1 0 1 0
0 1 1 0 1
0 1 1 1 1
1 1 1 1 1
1 2
6
1 0 1 0 0 1
1 1 1 0 1 0
1 0 1 1 1 1
1 1 0 1 1 1
0 0 0 0 1 0
0 0 0 1 1 1
4 2
2
1 1
0 1
1 1
5
1 0 0 1 0
1 1 1 1 1
1 0 1 1 1
1 0 0 1 0
1 0 1 1 1
3 4
4
1 1 1 0
1 1 0 0
1 0 1 1
1 0 1 1
3 3
2
1 0
0 1
1 1
3
1 0 1
0 1 1
1 0 1
1 1
5
1 1 1 0 0
0 1 1 1 0
1 0 1 0 0
0 1 1 1 0
1 1 1 0 1
1 1
9
1 0 0 0 1 1 0 0 0
1 1 1 0 1 0 1 0 1
1 1 1 1 0 0 1 1 1
1 1 0 1 1 1 0 0 1
0 1 1 1 1 1 1 0 1
1 0 1 1 0 1 1 1 1
0 0 0 1 0 0 1 0 1
1 1 1 1 0 1 0 1 0
0 1 1 0 1 0 1 0 1
1 6
6
1 0 1 1 1 0
0 1 1 1 0 1
1 1 1 1 0 0
0 0 1 1 1 0
1 1 0 0 1 0
1 0 0 1 1 1
2 2
8
1 1 1 0 1 1 0 0
0 1 0 0 0 1 0 0
0 0 1 1 1 1 0 1
0 1 1 1 1 1 0 1
0 0 0 1 1 0 0 0
0 0 1 0 1 1 0 0
0 1 1 1 0 0 1 0
0 1 0 0 1 0 1 1
7 2
7
1 0 1 0 0 0 0
1 1 1 1 1 1 0
0 0 1 1 1 0 1
0 0 0 1 1 1 1
0 0 0 1 1 1 0
0 1 1 0 1 1 1
1 0 0 1 0 0 1
2 5
9
1 1 1 1 1 0 0 1 1
0 1 0 0 0 1 0 0 0
1 0 1 1 1 0 1 1 1
0 1 1 1 0 0 0 0 0
1 1 1 0 1 0 1 1 0
1 0 1 1 1 1 1 0 1
0 0 0 0 0 0 1 1 0
1 1 0 0 0 1 1 1 0
0 1 1 1 1 0 0 0 1
8 2
3
1 0 0
1 1 0
1 0 1
3 3
3
1 1 0
0 1 1
1 1 1
1 2
10
1 0 1 1 0 1 1 0 1 1
1 1 1 0 0 1 1 1 0 0
0 1 1 0 1 0 0 0 1 1
1 0 1 1 1 0 1 1 0 0
0 1 1 0 1 1 1 1 0 1
0 1 1 1 1 1 0 1 1 1
0 0 1 0 1 1 1 1 0 1
0 0 0 0 1 0 1 1 0 1
0 1 0 0 1 1 0 0 1 0
1 0 1 0 0 0 1 1 1 1
6 9
