20
1 100000
100000 2
100000 7
41 18
6334 1165
19169 15725
11478 6403
26962 24465
5705 5326
23281 16828
9961 492
2995 2958
4827 610
32391 14605
3902 154
292 119
17421 1296
19718 178
5447 5386
14771 11539
