94
168
102
0
118
176
0
140
116
0
76
164
104
160
172
0
192
154
42
158
208
0
0
84
46
0
168
106
152
106
0
0
60
142
90
148
0
0
60
0
0
0
84
0
44
160
62
0
78
0
196
120
0
110
164
0
140
0
132
152
0
134
0
100
30
126
0
106
88
104
0
0
14
0
232
0
0
0
0
116
92
122
0
0
110
0
116
0
0
0
116
0
0
102
90
86
146
64
0
50
62
142
156
0
148
0
172
164
80
0
0
0
120
0
214
136
0
124
0
0
162
0
174
14
0
118
0
148
0
132
100
0
0
170
38
62
116
102
140
0
0
120
44
26
0
0
0
0
0
30
0
172
0
114
152
0
170
102
156
0
0
0
120
0
126
0
126
146
0
184
0
54
70
0
136
160
0
98
106
0
0
164
168
144
0
68
114
74
48
0
0
106
0
118
142
132
0
86
0
0
152
158
54
0
90
164
82
0
0
0
138
112
0
0
104
190
0
170
84
122
112
84
140
132
72
120
134
134
114
0
58
124
56
0
0
106
74
142
0
0
136
0
0
168
20
0
136
98
98
76
102
86
156
0
0
148
68
0
86
0
128
158
0
0
76
0
122
0
120
100
0
0
0
114
0
0
0
64
0
212
0
0
0
138
0
194
134
104
0
110
170
28
186
32
172
126
134
82
128
68
14
160
104
0
46
0
138
72
0
0
70
148
134
0
0
160
0
104
0
0
0
176
56
110
162
120
112
138
28
0
146
120
168
148
0
116
192
160
0
0
120
0
0
162
112
172
48
168
0
0
38
110
0
66
146
182
176
20
0
94
118
126
52
102
0
0
152
78
100
0
128
44
74
118
0
140
0
0
0
60
0
0
0
158
176
0
108
54
74
0
0
0
122
0
0
0
0
0
70
86
92
142
54
112
158
0
0
196
130
80
134
62
126
174
62
140
158
0
0
178
0
68
54
122
68
46
122
198
0
190
0
144
174
0
82
0
80
120
208
144
196
0
20
0
64
96
0
148
220
0
0
124
66
102
130
0
106
0
0
0
40
120
0
84
186
0
178
130
154
0
0
172
188
98
196
112
0
0
154
80
170
96
154
0
118
184
48
196
0
0
154
158
0
92
0
184
0
112
164
148
90
26
78
178
0
0
0
158
0
0
110
0
126
156
114
0
0
108
146
0
0
126
116
78
116
138
114
56
76
0
110
0
228
120
192
30
48
56
70
188
158
58
150
128
0
0
168
94
104
94
184
0
0
0
110
42
110
0
42
0
116
0
132
168
40
164
78
52
0
118
0
80
0
124
186
68
136
146
186
74
66
90
122
196
124
158
38
0
0
106
146
0
0
102
0
174
0
0
152
96
162
208
0
172
12
118
122
90
0
136
158
0
112
66
44
132
0
44
4
140
68
112
140
148
112
138
0
0
142
72
102
114
88
92
16
150
66
134
48
164
0
170
58
0
0
0
0
0
124
0
0
186
76
94
152
80
174
0
118
0
66
112
0
70
0
0
0
0
76
206
0
0
110
144
152
0
136
0
0
90
102
148
0
124
72
114
138
0
0
114
64
142
118
62
156
100
0
166
0
122
34
0
100
0
0
106
0
0
118
82
38
156
114
58
0
22
56
0
144
78
164
72
0
136
0
62
174
92
134
0
86
206
32
0
132
106
0
164
0
18
6
104
66
0
76
64
6
86
170
128
136
100
52
0
64
72
0
0
136
0
0
148
0
116
138
128
104
132
166
0
0
92
190
0
0
226
0
56
24
16
0
138
120
0
0
136
0
150
0
148
104
0
0
0
0
120
184
46
0
106
0
178
124
0
0
0
152
182
106
116
96
182
0
42
0
98
0
0
132
12
0
140
0
122
116
128
158
166
102
0
0
170
0
0
148
38
86
120
0
140
170
0
38
0
70
130
18
102
52
0
0
70
0
182
148
108
120
0
102
0
0
0
0
134
34
144
0
148
0
0
64
94
172
0
0
22
64
116
142
114
56
116
166
40
72
62
102
0
0
174
88
162
0
66
166
166
0
50
70
0
34
0
120
86
128
0
26
0
0
78
182
0
182
0
0
192
0
164
120
102
0
210
180
0
104
0
76
180
146
0
104
140
162
0
0
110
120
110
52
0
130
0
92
126
0
0
0
164
64
0
90
58
94
78
74
132
0
202
138
132
142
136
0
0
66
0
0
0
128
156
182
138
0
110
130
168
104
116
150
0
170
146
180
120
52
96
0
174
136
100
0
110
0
0
60
0
190
188
0
116
