20
81
82 256 32 256 512 2 4 8 64 256 2048 64 2 1024 4 4096 32 512 128 8 64 128 32 4 4096 1024 1 4096 32 4 16 128 1 4 1 32 32 512 4096 2 512 2048 2048 2 256 1 32 4 256 1024 4096 1024 2048 4 2 2 2048 1024 256 128 1024 256 8 1 1024 512 1 4096 8 512 2048 4096 1024 8 1 8 2048 4096 64 32 16
728
17 2048 4096 1024 128 16 2 128 16 512 64 256 8 4 16 256 2 2048 1 64 2 128 2 1024 8 128 1024 16 1024 512 4096 1 128 4096 2048 4096 2048 32 512 32 4 256 128 16 2 64 2 1024 32 2 1 4 512 128 32 2048 2048 16 8 2 1024 8 64 4 30646 128 128 16 16 2 4096 2048 16 1024 64 128 128 512 2 256 256 2 16 512 64 4 4096 64 2048 1024 32 256 8 32 64 1 4096 16 16 2 1024 2048 16 16 1024 64 2048 2 8 8 2048 1024 16 512 2 1 256 4 32 4096 1 32 2 16 1024 4 128 4 1 128 32 256 512 4 1024 8 64 2048 8 16 256 4096 2048 32 64 64 4 64 2048 1024 128 4 512 16 2 16 2 8 4096 4 1024 1 4096 4 2048 128 2048 2 16 256 64 16 512 2048 1024 8 64 4096 4 16 32 4096 1 128 32 512 512 4 4 2 4 8 2048 512 32 2048 2048 16 64 8 16 128 64 512 1024 512 4096 128 1024 128 64 128 128 256 16 256 4 1 512 2 2048 4096 4 2048 2048 8 8 128 2 1 2048 4 4096 512 8 2 256 256 1024 256 2 512 2 4096 4096 4096 1024 1024 256 16 4096 2048 4096 2 32 4096 1024 2 1024 1 8 1024 256 16 8 4 8 8 2048 4096 4096 4096 512 2 32 1 64 512 8 64 1 128 64 4096 2048 16 1024 4 1 4 4 1 64 256 1024 2048 2 128 128 4 2048 2 4 4096 1024 1 2 2 256 16 4 2048 4 256 4 2048 1 4096 2048 2 4096 32 32 64 16 4096 8 2048 4096 128 2048 8 32 64 256 8 128 256 8 512 4096 16 256 4096 32 128 1024 8 64 4096 8 16 4 4096 4096 2 4 32 16 2 512 256 128 1 512 256 4096 512 16 4 32 1024 64 32 256 128 256 8 8 2 2048 2 4096 4096 64 16 4096 1024 16 512 2 256 64 2 2048 32 4096 1024 4 1 32 8 4096 32 128 4096 4096 2 1024 1 4 4 64 2 256 64 1 4 4 2048 8 1024 2048 1024 4096 16 512 2048 128 2048 16 8 8 16 1024 32 256 2048 512 32 4 512 32 2 4096 32 64 2048 256 4096 512 1024 1024 4 64 128 4 64 1 128 2048 1 1 8 64 256 8 32 4096 64 256 256 2048 8 128 1024 4 8 512 1 128 512 256 32 32 1 128 1024 256 1024 256 8 4 1 2048 1024 1024 2048 16 2048 128 4 4096 32 128 4096 4 256 1 2 1 128 2048 8 128 512 2048 1024 8 2048 4 2048 1 8 8 2 128 128 16 1764 4096 4 2 2048 1024 128 4 4096 1 1 32 8 512 512 8 19897 64 64 4096 32 4096 4 8 4 4 2048 256 4 256 16 512 256 8 2048 2 8 64 128 32 256 4 4096 1 256 64 8 32 2 4096 2048 16 2 1 2 2 4096 64 64 4 1 1024 512 32 64 4096 512 4096 1 1 1024 4 32 4 2048 256 64 512 256 1 8 1 1 512 128 4 4096 256 16 256 4 4096 2 1 128 16 4096 32 1024 64 32 4096 4 32 512 256 128 1024 32 2048 4 16 512 16 7423 28411 2 4096 512 4 256 32 512 2048 64 128 1024 16 256 4 512 256 64 256 2 256 1024 4096 2 128 256 8 2048 16 1024 256 32 1024 4 32 128 8 4 1024 4096 512 64 128 64 8 4096 8 128 2 1024 32 128 8 4096 64 4096 1024 8 256 512 2 16 4096 4096 256 256 4 1024 2048 1 16 128 128 2048 256 256 512 256 128 4 4 512 1024 8
790
58 8 32 128 512 16 64 512 32 32 4096 1024 1 128 64 64 16 2 128 2 2048 8 512 1 256 64 64 2 16 128 512 32 1 16 512 64 2048 2048 512 4 4096 2 2 1024 8 512 1024 512 64 1024 128 2048 64 16 4 32 1 4096 2048 4096 2 1 16 8 2 128 1 1 32 32 16 1024 2 2 2 2 512 2 1 64 4 512 128 16 32 4 32 128 1024 2048 4096 4 2048 16 128 2048 128 1 128 1 128 4 1024 2048 2 32 2048 2048 2048 16 4 2 2048 2048 16 32 1 1 16 32 256 4 2048 4 4 2 2048 4096 2 512 4096 1024 2 2048 4096 128 4 16 8 16 2048 128 64 512 4096 256 2 256 256 64 32 2048 16 4 512 64 256 512 512 64 64 1024 32 32 2 256 4 4096 32 32 2048 16 256 4096 2 64 1024 4 256 2 16 4096 2048 8 2048 256 8 4 10405 8 16 64 128 512 2 16 512 4 512 128 2 1 2 2 64 128 2 256 2048 8 1 4 32 1024 64 16 64 4 32 32 1024 2 1 2 512 8 2 32 1 2 8640 8 4 16 64 4 4 64 64 64 32 1024 1 32 8 16 4096 128 256 128 1 128 2048 2 8 8 512 16 128 64 256 1024 4096 1024 2048 64 256 4096 2 23989 512 256 64 128 1024 256 1 4 8 16 2 2048 1024 2048 64 16 64 2048 2 1024 2048 64 2 2 8 128 2048 32 1 32 1024 4096 4096 2048 2 16 2048 64 4096 8 64 1024 32 1024 11208 64 64 32 2048 4 4096 512 1024 512 32 4096 1 512 4096 4096 256 512 256 32 1 32 512 64 512 1 2318 128 32 1 64 4 2 64 2 64 128 512 256 2 32 32 32 26469 64 2048 1 64 4096 4 128 16 32 256 4 128 2 256 16 8 32 64 8 256 1024 64 512 2 128 256 512 256 2048 16 32 512 128 8 128 4096 4096 1 2 16 32 128 128 256 256 16 4 1024 16 4 256 2 2048 4 32 256 512 1024 2 8 32 8 128 2048 4096 2048 1 16 4096 512 16 32 8 1024 8 256 128 2 16 2048 2 256 2 2 1110 2048 2 2048 32 64 32 8 256 4 8 32 4096 512 2048 128 256 32 32 8 1024 64 128 8 512 32 512 512 1024 256 1 8 8 128 8 2 4 128 512 256 4 128 8 128 1024 4096 16 128 4 1024 512 128 4 4 128 128 2048 2 4 256 1024 1024 4096 512 32 4 256 16 2 2442 1 1 8 1024 1024 128 32 1024 4 128 8 16 64 64 256 16 2048 1024 1 512 2048 512 64 64 1024 1024 16 512 512 2 1 4096 1 2048 128 1024 256 8 1 64 32 16 1024 128 128 64 8 1 16 2048 128 4 8 128 64 16 4096 128 4 256 64 8 4096 128 8 128 256 1024 2 4 64 31168 4096 256 512 4096 2 8 16 1024 2048 4 4096 1 1 4 1024 2048 128 512 16 32 64 4096 128 128 2 256 1 64 256 32 1 2 128 2 4 32 8 2 128 8 2048 1024 4096 4096 13998 32 2 4096 32 1 512 1024 32 2048 256 1 2048 8 1024 16 4 16 4096 2048 2 1024 2 2048 1024 1 32 4 256 512 2048 512 1 512 32 256 16 16 64 4096 16 512 32 1024 256 1 256 512 1024 4 512 32 16 256 4 8 8 8 4096 16 16 2048 512 1024 2 256 1 4096 1024 256 256 64 128 4096 8 128 128 1024 8 16 2048 32 256 32 64 4096 1024 32 64 4096 512 8 8 4096 4 8 256 1 2 64 64 1024 128 16 32 2048 4096 2 64 1024 32 1024 2048 4 128 2 128 512 1024 2048 16 32 4096 32 2048 512 128 16 1 1024 64 4 256 128 1024 512 8 64 1024 64 64 4096 128 1 128 128 16 1 16 2 4096 64 512 4 4096 512 32 4 2048 16 4096 2048
548
1 2048 1024 128 1024 4096 16 2 1 512 4 1024 16 8 2 64 1024 16 64 4 2 128 4 4 4096 1 1024 2 16 16 23402 4096 8 8 32 1024 8 128 2048 16 1 128 2 2 128 2048 64 2048 256 1 128 16 64 64 1 1 64 1 2048 16 128 4 2048 4 4096 128 8 2048 512 256 256 128 1024 1024 32 128 128 1 2048 2 1024 4 16 128 8 4096 64 4 32 32 32 256 4 64 2 1 4 32 1 8 128 64 4096 16 4 1024 16 32 16 128 4 32 256 16 1 1024 1 128 8 2048 64 16 8 1 256 4096 32 32 2 512 256 1024 256 512 16 16 64 1024 256 2 4096 2048 2048 512 4096 1 2 256 4 4 128 2048 8 32 256 256 8 16 4096 8 1 4096 8 16 2 4 4 512 4096 1024 256 4 4096 128 8 128 8 2048 32 1024 1 64 1 256 16 4 128 1 4 2 1024 1024 32 4096 2048 4 4096 1024 2048 2 1 64 1024 1 16 1 64 4096 2 512 8 64 4096 128 512 2048 1024 2 64 64 2048 16 2 8 1024 128 256 1 256 2048 32 4 64 2048 64 4096 1 64 1024 512 256 1 256 32 32 512 16 4096 32 64 2048 64 2048 16 2 32 1 4096 2048 128 512 4096 256 256 128 256 32 1 512 512 256 128 16 2048 16 512 128 256 2048 64 8 8 2 4096 16 4 1 4096 8 128 8 64 32 512 32 512 2048 1 4096 8 4096 4096 8 4 64 2 1 16 4096 1024 4096 512 4096 128 64 512 4 2048 16 16 8 8 64 16 8 2048 128 128 128 4096 16 2 128 25435 1 256 2048 64 4 32 2048 256 32 4 8 512 256 8 64 8 64 512 256 128 32 1024 1 16 4096 1024 64 16 4 128 2048 4 32 32 1024 256 2 16 8 2 64 128 2048 4096 2048 256 4 32 512 1024 128 64 4096 4096 64 32 2048 4 4 128 512 16 128 4 512 2048 8 32 16 1 8 256 8 512 256 256 2048 4 4096 1 32 4 2 64 16 512 512 8 1 256 1 4 1024 1 32 256 2 8 256 16 256 128 1 8 2 256 4 4096 2 8 4096 16 8 2 256 8 4 16 8 128 1 512 1024 2048 256 4 512 1024 4 4096 2 128 1 4 9406 2 512 4096 1 64 128 64 256 16 512 16 16 512 16 1 512 512 512 1 256 4096 256 256 32 4 32 1 4096 32 4 1 32 2048 32 4096 4 512 8 1024 256 512 2048 2 8 16 4096 2048 8 1024 16 512 512 2048 512 8 8 2 2048 16 1 1 8 2048 64 64 27732 32 2048 4 8 4096 32 4096 1024 1 15339 32 64 512
758
9 256 2048 512 2 4096 256 64 32 128 512 4096 128 4 256 8 16 256 2 23635 256 2 13873 1 2048 128 8 4096 2 2 512 8 128 512 64 64 8 32 4096 2 2048 4096 512 512 2 4096 2 16 128 2 8 2048 64 32 128 512 8 2048 16 256 256 8 2048 512 4096 512 2048 2 32 256 256 16 128 32 4 32 1024 512 512 1024 32 2048 1 128 32 8 1 16 1024 4096 16 4096 4096 1024 4 16 8 2 16 32 64 8 2 128 128 8 4096 256 1 1 512 128 128 512 256 256 64 4 2 32 2048 32 2048 64 16 64 1 16 32 128 128 32 2 8 32 64 256 8 64 2048 4 4 128 256 8 1024 128 16 1 2 512 2 16 4096 2 4096 2048 32 512 1024 512 4 32 1 2 1 2048 13170 32 2 64 16 1 4 8 32 4096 128 4096 512 4096 128 4 64 2 128 32 4 8 128 128 4 8 16 32 8 2 2048 8 32 2 32 1024 4 2 2048 2048 2048 256 1024 1 2048 64 2 2 512 512 32 4 21806 256 128 512 4 2048 32 2 512 512 16 1 1 128 128 1024 64 512 256 1024 4096 2 8 4 1 512 2 4 2048 1 1024 256 2 1 64 2 32 64 128 512 64 32 4 32 256 256 1024 64 64 64 256 128 8 2 32 2 4 2048 4096 1 128 64 32 4 256 512 64 512 32 64 256 16 8 16 64 1024 64 256 8 128 512 512 8 128 128 256 8 16 1 26740 4 8 2 32 1024 8 128 2 4 4 128 2048 128 8 4096 4096 16 4 128 128 256 2048 5070 256 2048 32 32 4 8 4 4096 512 8 4 2048 32 4096 2 32 1 256 64 32 4096 256 32 1 128 2 2048 4 64 2048 4096 128 512 1024 1024 512 16 256 4096 4096 512 8 2 512 4096 16 1 128 1 32 2 256 512 256 32 4096 64 2048 2 1 128 2 4 1024 512 64 256 512 512 4096 4096 128 256 4096 512 64 4 11152 2048 4096 128 128 2 2 512 256 16 2 8 32 16 512 1024 512 512 2048 512 512 64 128 64 512 4 256 128 31435 1024 2048 4096 4096 16 8 2048 1 2 32 2 4096 2 2048 128 2 128 2 18338 2 4096 2 4 64 512 64 512 2048 2 1024 16 512 512 1 1024 2 32 1 4 64 256 16 8 1 64 2 16 512 1 1024 1 512 8 16 1 512 64 256 64 64 4 2048 4 1 2 64 1 512 2 1024 1024 32 1 16 4096 512 2 64 128 32 4 4096 16 1024 128 2048 2 16 32 256 128 256 32 4096 16 4 16 2048 2048 32 256 16 512 1 128 1024 256 1 16 4096 1 8 4 512 256 128 256 256 32 8 64 16 2048 16 64 2 16 32 1024 1024 1024 256 16 32 8 256 128 64 16 512 4 512 64 64 1 1 2048 64 128 8 32 2 1024 64 2 256 64 512 256 2 32 1 32 8 16 1 128 32 32 128 12441 1 128 4 16 32 4 2048 1 2048 256 2 1024 2048 2 1024 512 2048 16 8 4 8 16 256 32 256 128 16 2 128 256 2 1 4096 8 64 1024 4096 4096 512 1024 32 8 1024 256 256 1 32 256 64 1 128 512 2 128 2 1024 1024 64 32 2048 64 4 2451 2 32 128 4096 16 2 8 8 4096 8 32 1024 64 64 8 1 64 64 8 512 64 1 1 256 4 256 128 8 1 2048 16 4096 1 256 32 1024 64 4 1 512 4096 128 512 2048 2048 4096 256 2 512 4096 128 2 2048 128 32 8 4 16 1024 64 64 2048 1 512 2 2048 16 2 1 128 1 8 4 256 32 128 128 1 2048 4096 1024 32 2 512 2048 16
368
25 32 8 128 2048 4 2048 2 256 64 128 8 16 1 256 16 2048 512 64 8 16 256 4 4 1024 64 4096 1 4 64 16 32 4 32 8 16 64 16 1 4 8 4 4 8 1 32 1 4096 8 32 512 8 4 64 4096 4 4096 1 1024 16 64 1 256 1 32 1 4096 2048 256 4 8 8 32 2048 2 32 2048 1 16 4 1024 2 16 32 2048 128 32600 2048 4 32 4 16 1 2 16 128 512 2048 4 64 1 64 64 128 2 2048 128 2048 3 256 64 2048 256 4 1024 1024 2 256 16 2 2 4096 8 256 2048 4 1024 4096 512 64 32 512 2 4096 32 8 1024 128 1 2048 1 256 4096 4 4096 1024 512 128 4 1024 512 4096 512 2048 4096 4096 8 2 8 16 8 128 32 2 256 4096 32 128 256 1 128 64 64 128 128 2 64 4 128 32 2 64 16 16 128 32 1024 512 512 16 4 64 2 32 4096 8 1024 128 256 1 512 256 2048 32 8 4096 4 4 4096 16 256 4 64 256 16 1024 2 128 8 512 16 2 512 64 2 4 4 16 256 4 8 4 128 4096 4 1 4096 2 2 1 3574 4 4096 1 128 64 2048 512 256 1 256 4096 1024 4 2 16 64 1024 2 4096 2 2048 128 2048 256 2048 512 64 4096 2 128 4096 4 1 256 256 8 1024 16 512 16 1 2 2048 1024 1024 512 2 26501 16 256 4096 256 1 1 256 1 8 64 256 512 2 128 128 2 128 1 4 2048 64 128 8 4 128 1024 128 2 32 256 2048 128 16 16 512 32 8 4 2 2048 64 512 2 16 8 32 128 32 16 4 64 512 8 512 8 1 16 32 16 64 512 512 128 512 2 2 16 4096 16 2 256 64 256 16 2 1024 11930 256 256
12
82 2 2 1024 1 256 2 1 2 4 256 16
26
11 16 2048 16 256 1024 128 2 128 512 2 2 4 8 31491 128 64 4 512 64 8 8 1024 2 512 128
391
13 128 512 16 4 4 64 4096 16 64 2048 16 256 32 512 8 16 8 16 2 32 128 256 2 8 1 64 16 25461 4 4096 2048 128 2048 4096 128 2 2048 512 16 8 32 256 2048 2048 8 16 31002 4096 8 8 16 1 4096 1024 8 2953 256 64 1024 2 128 2 4 8 1 1024 2048 2048 512 1 1024 16 64 64 256 16 1 4 8 4096 8 4 1024 64 4 8323 2 64 512 4096 1024 16 1024 256 128 2048 128 4 4096 4 4 128 4096 4 4096 64 64 1 1 32 4096 4 128 1024 64 8 4096 1024 4 2048 1 1 64 256 16 1 16 64 512 64 128 1 512 4096 512 2 64 1024 8 512 4 2048 512 128 4096 4096 1 64 4096 16 2048 128 2048 128 2 4 64 1024 256 128 4 512 16 2048 32 16 1 128 64 128 4096 16 64 128 1 128 256 8 2 256 32 1 1 4096 256 1 8 8 128 256 512 128 32 512 16 64 8 256 1024 512 8 2048 1024 2 1024 8 1024 16 2 1024 1 1024 4096 256 256 2048 256 4096 1024 8 2 256 4096 4096 1024 4 32 2048 2 256 16 256 10857 2048 8 1 4 64 4096 128 256 4 512 2 128 256 32 2 256 256 4 64 2 64 256 2048 32 2048 64 64 32 32 512 2048 1024 4 128 512 256 1024 16 1024 64 32 8 2048 512 1 128 4096 2048 1024 2 128 1 8 64 1024 32 2 128 2048 16 32 8 64 2048 16 2 64 32 64 64 8 16 256 512 512 8 4096 16 256 1024 8 128 128 32 2 1024 1024 26361 4 2048 16 2 4096 16 2048 2 16 4 4 32 4096 64 64 4096 512 2 128 2048 8 8 1024 512 256 2 1024 128 8 4 1 4096 32 16 512 4 32 64 2048 4 64 16 256 1 2 16 2 32 8 256 256 256 4096 8 2048 4096 8 2 512 128 128 2048 32 2 2 4 128 4 1024
885
54 8 128 4096 4 2048 256 32 32 2048 256 2048 512 256 512 128 16 1024 1024 16 2048 16 4096 1 2 4096 2 32 4096 512 4096 2048 256 16 32 256 8 64 32 256 4096 1024 128 1024 256 1 2048 64 4096 2048 4096 16 1024 2048 1 32 2048 16 4096 64 11128 128 64 512 256 4 16 32 4096 4 1024 256 64 32 128 16 1024 1024 512 128 64 256 2048 64 16 16 4 32 2 256 30202 64 4096 256 128 64 2 128 4096 28734 2 4096 32 32 1 512 2048 1024 2048 2048 4 1 32 8 64 32 2 128 8 256 32 32 4 8 1 1 1024 32 256 256 8 8 8 512 32 8 2 256 16 256 1 1 2 8 64 1 256 1024 1 512 2 16 1 2 128 1024 8 512 1 512 1024 4 256 16 512 256 256 256 1 32 2 256 8 4096 128 2048 8 128 16 2 4096 2048 1 2048 2048 64 512 1 4096 4 4 512 4096 4096 8 16 256 32 2048 128 64 256 1 512 1024 2 64 2 256 1024 256 16 256 512 1024 512 128 2 4 32 1024 8 1024 512 1024 64 2 8 1024 8 2 2048 64 1024 1 3890 32 4 1024 8 32 2 256 2048 4 1 4096 4096 16 4096 1 1 4 32 16 64 64 256 4096 2048 2 2 4096 2 4 2048 64 32 1 128 64 1024 16 128 1 8 2 128 4 64 32 256 2048 2048 8 16 2 1024 32 1024 4 512 512 8 2 128 1024 2 4096 512 1 8 24215 16 256 2 4096 1 16 64 16 4 64 32 128 64 512 8 128 4 1 1 1024 1024 4096 2048 512 1024 256 2048 512 4 16 128 4096 512 2 2 512 2048 2048 8 4096 128 4096 2048 256 256 32 4096 8 4096 1 5643 64 64 1 2 1024 64 32 128 1024 512 128 8 2 2 64 1 16 128 4096 4096 32 256 8 128 1 64 2 4 4096 2048 2 1 4096 16 4096 4096 4096 2048 64 4096 4096 512 1024 2048 16 2048 1024 64 64 16 16 32 16 4 64 64 4096 256 8 4096 64 8 1024 1 4 6313 2 64 1024 512 8 4 1 1024 2048 8 8 3228 2 2048 16 2 1 4096 64 1024 256 512 8 4096 12590 512 4096 2 128 64 2 4096 1024 1 4096 4 16 128 512 8 8 16 4 512 128 1024 1 2 128 1 512 4 16 256 32 8 128 4 128 8 4 4 256 512 4 256 2 16 2048 2 32 2 256 128 16 128 32 32 2048 32 128 256 4 2048 8 4096 1024 128 8 4 512 128 1024 4096 1 4096 32 2 4096 2 512 1 4096 4 4096 1024 512 256 4096 16 2 128 2048 2 2048 64 8 1024 32 2 512 256 1 32 128 32 512 256 4096 128 8 512 16 1 256 32 16 16 512 32 128 256 32 4096 256 32 64 4096 1 1024 64 128 8 4 8 1 128 2 32 1 2048 4096 1 2 2 512 256 16 16 8 4 1 8 1 4096 512 64 512 1 4096 256 4096 16 512 256 32 1024 4 16 2048 256 32 64 16 64 64 512 32 1 8 512 2048 128 4096 128 1024 2 2048 256 1024 4096 2 32 128 16 1024 128 16 64 1 128 128 2048 8 2048 64 4 2 4 9060 512 64 1024 128 2048 256 32 2 128 8 4096 2048 4096 128 1 512 2 512 8 4096 128 2048 4 2048 4096 128 512 1024 1 4 256 16 32 2 1024 1024 256 4096 8 512 16 128 1024 8 4096 64 1 32 512 2048 4 4096 32 16 4096 512 128 16 8 32 64 8 4096 1024 16 1 64 1024 1 32 128 64 16 4096 25264 64 512 6237 32 4096 16 16 8 512 2048 4 256 64 1 8 64 32 4096 512 32 512 1024 16 64 1 512 2048 2048 1 2 128 8 8 64 2048 16 2 256 8 4 2048 2048 8 64 4 16 2 1024 64 512 128 1024 1024 2048 1 16 32 8 4 1 64 4096 2048 256 1024 1 512 2 512 512 1024 1 1 64 4 128 128 8 256 2 16 512 64 2048 32 2 8 2 1024 64 1 8 1 4096 2 8 2 256 512 64 1 256 1024 16 1024 2 1024 2 32 1024 512 4 1 512 4096 16 256 512 1024 1 1 32 512 2 16 32 2048 8 4 32 1024 16 256 256 256 8 128 1024 64 512 4 32 4096 32 64 4096 2048 2048 4 16 512 512 64 16 128 512 1 64 8 256
359
1 256 2 2048 64 256 16 4 1 128 1024 8 8 512 256 4096 2048 8 1 16 4096 64 64 512 1024 1 1 256 1024 1 16 2 4 2048 16 2 1 4096 64 1 512 1024 8 2 1 16 1 1024 4 2 32 64 8 2048 4 128 1024 8 2048 2048 4096 8 512 512 2 2 512 4 2 64 256 4096 16 128 512 512 1 8 16 256 64 1024 30005 2 4 4096 256 4 128 8 4096 1024 1 1024 16 4096 4 256 32 64 512 1024 4 8 1024 256 1 256 512 256 2048 32 4 4096 256 512 16 16 128 512 32 1 1024 2048 4096 2 32 256 4 1024 256 64 2048 1024 256 64 512 64 64 128 4 4096 2 4096 256 1024 512 1 128 2048 4 128 128 8 256 32 4 128 4 512 4096 4 1 128 128 1024 1024 1024 256 32 4 128 4096 4096 1024 8 128 4 2 16 8 1 2048 1024 2048 32 128 2 1024 8 1024 128 16 512 4 4096 128 2 4096 2048 8 4096 1 2048 2 32 128 4096 1024 2 512 512 2 1 256 32 1 32 4 4 32 4 256 16 1 2 1 1024 32 256 1 2 4 4 4 16 128 2048 128 64 128 512 2048 128 32 16 2 16 128 8 8 512 256 512 512 8 64 1 1024 1024 32 2048 4096 2048 32 8 256 1024 2048 8 4096 4 64 32 16 4 512 1 64 128 32 1 2048 512 4096 4 32 512 4 512 4096 4 512 2 4 1 1 19434 4096 1024 64 16 32 128 1024 128 4096 1024 8 16 1024 1 4 4096 256 4096 16 64 128 64 64 16 2 512 16 64 16 512 2 2048 32 8 1 8 512 512 512 512 32 4 512 4 4 64 256 16 256 4 4096 16 64 4096 4096 512 16 128 8 2048 128
440
66 4 64 1024 4 1 512 256 2 1024 2048 16 8 4096 8 1024 256 16 4 1024 256 64 2048 1 32 256 32 256 1024 128 2048 64 1 256 4096 16 4096 128 4096 2 4 1 2 4 4096 1024 2 1 4096 64 256 16 4096 64 1024 2048 1024 8 512 2048 64 1024 32 8 4096 8 2 8 1 512 4 512 512 4096 64 256 1024 1 16 256 128 64 16 2 1024 1024 64 8 8 128 256 256 64 32 512 512 128 64 2 256 2048 16 2048 16 2048 1 256 2 4096 2048 256 14867 1024 128 2048 2 512 16 2 64 32 8 256 1024 256 4 8 512 64 2 2048 1156 256 512 512 64 4 128 512 2 128 128 1024 4 512 32 1024 2 256 2 16 128 2 2 4 2 1024 4 8 64 1 2048 32 1024 512 128 64 4 1 1024 32 64 1024 4 2 256 256 128 1 1024 128 14442 16 128 512 2048 2048 8 8 4096 32 1 8 2 2 512 128 16 1958 4 128 1 16 32 256 4 4096 128 2048 4 64 64 4 2048 128 2 16 2048 4 64 2 1 4096 64 4096 512 2 2 2048 1 512 2048 32 64 256 4096 512 2 4 64 2 2048 1024 2 64 256 128 4096 64 1024 2 1024 64 128 8 2048 1 64 128 1024 32 256 256 4096 256 32 2048 4096 1024 8 4096 32 64 32 1 32 2048 4 512 28443 2 64 64 32 256 4 4096 16 512 8 8 512 128 2 2048 8 64 1024 4096 64 32 1 256 1024 8 64 8 128 512 4 8 8 16 8 4096 14163 2048 512 8 512 4096 16 64 1 8 1024 8 2048 1024 1 256 4096 2 1024 8 16 1 1024 128 64 1024 4096 1 2048 4096 4096 32 256 2048 512 1 16 8 2 16 4096 4096 2 2 2048 64 2048 512 64 512 4 64 256 4096 256 16 1024 4096 4 2 4096 2 2 1 2 4 1024 8 32 2 2048 2048 2048 128 64 8 128 1 2048 1 4096 2048 16 8 64 32 128 1 2 64 8 4096 2 1 2048 1 1 32 512 128 256 4 4096 128 16 32 512 32 1024 2 512 1024 1 1 2048 64 2048 1 1024 128 512 64 1024 2 8
637
18 1024 16 4 64 8 64 256 256 512 1 4096 2 4096 1 4096 16 64 128 128 8 4096 2 512 4096 256 1024 128 512 32 128 4 16 4096 512 512 128 8 128 128 4 1 4096 2048 2048 32 1024 4 8 128 256 2 256 2 256 2048 2048 128 4 1024 1024 2048 4 4096 256 64 32 2048 1 16 16 4096 64 2 64 64 2048 1 4096 64 2048 4 256 4096 4096 1024 1024 1024 1024 2 2 128 1024 4 128 2048 1 16 64 2 256 128 64 2048 2048 8 16 1024 256 4096 128 256 8 32 256 4 8 4 8 8 1 4096 8 2 4096 256 2 1 2048 32 16 1 1024 32 4096 512 4 128 4 32 4 4096 8 4096 1024 2 4 1 2048 1 4 2 2048 512 32 2 8 4 4096 2 512 4096 64 128 1 2 2048 32 256 1 2048 1 512 4096 8 128 2 256 4 1 128 1024 512 4096 2048 64 4096 8 64 8 1 1 2 8 512 128 128 128 128 1 256 4096 64 4 512 32 4096 32 8 256 4096 8 16 1 512 16 8 4 64 2048 512 128 4096 512 256 64 4 32 2048 16 4 1024 512 16 2048 4 64 2048 1024 4 512 32 4096 16 64 1 128 4096 16 32 16 64 2048 128 1 32 1024 16 1024 256 4096 64 1024 64 4 29626 32 256 32 8 4096 1 64 2 128 128 256 256 2 1024 16 256 512 2 1 16 256 1 2048 32 16 8 1024 512 2 256 16 256 1 4096 32 1024 2 4 32 16 64 2048 1 2 2 32 2048 32 512 16 512 4 256 1 512 2 16 1024 256 128 16 2 64 16 64 2 1024 128 512 64 64 2048 128 128 2048 256 1024 1 32 4 8 256 128 1 64 2 2 256 4096 1024 64 256 1 2048 1 2 2048 2 4 32 1024 512 1 8 4 4 16 256 32 2 8 256 16 4096 512 512 64 8 256 64 8 8 4 1024 8 256 2 2 4 2048 1 32 128 1024 4 16 8 512 1024 256 4 256 512 16 16 2 1024 2 2048 4096 128 8 1 512 2 128 2048 512 512 4096 4096 4096 16 8 2 4 4 64 64 32 32 1 64 4096 1024 16 4 32 4 8 4 16 2 64 1 256 8 1024 1 1 1024 128 2048 2 128 4096 16 4096 128 4096 32 32 2 1024 1 4 8 8 4096 32 1 32 8 4 256 128 2 512 128 4096 2061 16 4096 1024 1024 256 18782 4 2048 256 256 8 32 4096 4096 32 512 29783 16 32 128 1024 64 1 8 512 4096 4 256 256 2 4096 64 19666 2 128 64 64 2 32 8 16 256 128 16 2 2 32 1 8 16 128 32 2 4 16 256 64 2 2048 1024 256 2048 2048 1 64 128 64 1 8 1 4096 256 64 1024 2048 8 16 1 2048 64 2048 8 32 2048 1 24314 2 32 64 32 8 1 128 8 2 1 64 8 8 2048 512 64 16 128 1 2048 256 4 2048 1024 16 1024 1 1024 128 2 1 32 256 4096 1 256 1 64 512 4 4 1 1024 2 8 64 64 2 128 4 4096 4 2 64 32 8 16 1 4096 4096 1024 1024 128 8
978
61 1 22637 16 512 2 16 512 32 64 1 4 1024 32 16 512 16 256 2 4096 4096 1 16 1 1 1024 512 2 16 32 8 4096 4 4 256 2 2048 64 4 512 2 8 4096 1 4096 512 64 4096 256 256 256 16 16 256 32 128 4096 256 1 2659 128 2048 4 128 2048 1 128 32 32 128 128 512 4 256 16 64 4 128 2 128 128 2 256 512 4 64 64 128 1024 1 64 128 8 64 1 8 256 16 2048 1 512 4 1 4 256 16 16 1 2440 1024 4 2 512 2048 512 512 16 1024 4 1024 8 2 128 32 32 2048 64 512 8 4096 4096 2 8 1 512 256 256 128 4096 128 128 1024 2 1 4 4 16 2048 4096 1 4 4096 1 256 2048 256 256 8 2 2 32 2 4 4096 256 256 4096 4 4 256 1 512 128 8 1 1024 2 4 1 1 4096 32 1024 1024 4096 4 2048 1024 4096 16 64 4096 32 2048 2 4096 128 32 32 2048 32 16 64 1 32 4096 8 32 4096 64 1024 2 1 8 2048 2048 256 1 1024 4096 256 2048 4 4 2048 2048 64 8 4 16 1024 4 128 1024 128 256 128 8 2 4 64 1 16 2 256 1024 2 1024 128 32 16 4096 256 8 1 2 1024 16 32 128 1024 128 8 512 4 4096 512 4 128 2048 2 64 1024 16 32 128 128 2048 8 1 4 128 8 2048 16 128 128 8 256 32 8 16 4096 1024 2048 128 128 256 128 4 512 64 64 64 4096 2048 8 1 128 2048 128 256 128 1 1 128 2048 2 2048 128 8 32 256 2048 2048 256 16 256 64 256 8 8 1024 4 512 1024 512 64 1 1 8 4096 512 64 1024 4096 32 128 256 8 32 16 4096 32 8 128 4096 1024 128 1 16 512 4096 1 32 4 2048 4096 32 16 128 2048 128 256 16 256 512 1 1 512 8 1024 32 128 4 8 64 32 1 1 1024 4 128 16 16 4096 256 32 128 1 2048 64 4 1024 16 32 2 512 8 4 1 128 128 4 8 4 64 4096 128 128 1 512 64 256 1 1024 512 4 1024 4096 256 128 32 1024 512 1 2 2 4 1024 4 1024 128 256 2048 2048 1024 4096 32 2048 32 256 4 4096 64 2048 2048 2 4096 16 4 15660 128 256 128 64 512 512 4 16 4 1 128 4 1 8 32 2048 4 64 256 2048 16 256 128 1 64 8 32 16 2048 512 64 512 128 256 32 32 32 128 64 32 16 4096 128 4 512 2 512 64 1024 1024 1 8 16 512 512 32 2 512 16 256 256 1024 2048 4 1024 64 18291 512 512 4 2 1024 19104 512 64 256 2048 2 4096 4096 64 2 2048 1024 4 1 16 4 256 1024 512 4096 256 16 16 4096 16 4 64 512 512 16 4 1 64 64 1024 1024 4096 64 256 4096 2048 1 32 8 16 16 1024 8 128 2048 4096 128 1 8 2048 16 2 8 512 256 4096 32 1024 256 16 2 128 32 2 4096 21695 4 16 4096 64 128 4 16 4 16 32 2048 1024 4 32 1 512 8 2048 8 2048 512 1024 4096 4096 256 4 8 1 4 64 4 1 256 8 8 8 64 8 8 32 16 8 256 64 64 64 512 1 128 1 128 4096 2048 64 512 8 16 2 64 128 64 2 512 32 4096 1 14498 4096 64 4096 128 32 4096 4096 16 32 128 1 1 1024 16 64 32 32 128 8 512 512 1024 1 64 32 1 4 64 1 128 128 4096 4096 32 2 2 2048 64 64 512 128 32 1024 256 64 1024 32 2 128 4 2048 32 512 64 128 2048 512 1024 8 8 2048 4 512 256 256 128 128 16 16 64 256 256 64 512 1024 2048 4 512 1024 32462 1024 512 2048 2 256 4096 512 1 4096 1024 4096 2 1024 128 4 2 256 256 2048 16 32 16 1024 2048 64 1 128 256 512 16 1 32 8 4096 2048 2048 2 128 8 256 32 32 4096 512 256 1024 4 64 4096 256 8 4096 128 512 128 16 4 128 64 2048 16 128 256 32 8 512 8 256 8 16 2 4096 1 512 256 8 512 1 1 2048 4 16 2 2 2 1 4 128 32 27935 1 16 128 4096 4 1 16 256 128 1 16 128 2 256 512 2 4096 1024 512 128 32 4096 2048 1024 512 1 512 32 4 2048 256 16 4 512 128 64 256 2 1024 512 32 512 4 8 8 128 128 4 1 2 4096 16 16 2048 2 1024 2 2048 4096 1 128 256 8 1 16 64 8 2048 4096 2048 1024 128 256 16 32 512 1024 4 256 4096 2048 4096 1024 16 128 4 8 512 256 1024 512 128 256 2048 256 8 64 512 1024 4 16 512 8 8 4096 32 2048 2 16 1 6128 256 512 4 1409 1 1024 1024 4096 2048 2048 256 4 256 1 8 128 1024 4 1 4096 32 64 4 2048 2048
493
22 2 256 4096 1 4 64 27403 8 4 4096 32 4096 16 2048 64 16 1 2 64 64 256 4096 4096 512 128 64 256 32 2048 256 16 4 32 1024 4096 2 128 4 8 512 128 128 16 512 2048 256 32 2 1024 4096 1 512 128 256 4 2048 1024 16 1 64 256 2 512 64 512 1024 256 2048 2 16 64 2 64 1 16 1 2048 128 128 4 2 4 16 4 32 32 512 1 8 2048 1 1024 2 8 128 4096 4096 16 128 32 1024 64 32 512 1024 4 16 4096 32 64 2 1 512 64 1 4096 32 256 32 4 4096 4096 2 512 4096 32 8 2048 512 32 128 1 1 64 256 128 64 8 1 8 64 64 64 16 8 128 1 256 4096 2048 2048 8 1024 8 512 32 16 256 16 32 64 128 16 8 32 2 1024 8 1 64 256 512 4096 1024 2048 16 1 512 8 32 1 512 1 1024 4 2048 1024 16 4 2 4 4 64 128 512 4096 128 4 2048 8 16 16 16 16 16 512 16 128 64 1024 16 64 4096 64 1024 32 1024 64 4 4096 4 256 4 2048 4096 1 1024 4 1024 4096 32 512 32 2048 16 1024 2048 4096 2 4096 16 2048 1024 16 256 8 1 1024 4096 1024 32 256 1024 16 2048 256 1 16 5488 1 4 64 2 128 1 8 2 2 1024 1024 2 64 4 128 128 8 8 2 64 128 1024 4 32 1024 128 2 2048 4 512 8 16 4096 64 2048 32 256 64 32 32 2048 8 512 1 8 4096 128 2048 256 8 8 32 16 32 4096 512 64 2 256 512 8 2 29445 1 1024 128 8 64 1024 4 64 16 2048 64 4096 512 256 1 64 128 512 2048 2048 1 4 2048 8 256 32 4 512 1 512 4 16 16 8 4096 1 16 8 16 8 128 256 128 4 4 4 1024 256 32 1 4096 128 32 8 128 2 8 4096 16 64 1 4096 256 256 64 2048 32 32 1 32 64 512 1024 128 256 1024 64 4 2 8 2048 512 128 2048 512 1 512 128 64 1024 2048 4096 1024 1 1 16 2 2048 2048 128 64 2 1024 8 64 2 32 1 4096 64 4 128 512 8 1 16 64 32 32 512 4096 64 512 1 1024 4096 1 2048 256 512 2048 256 8 8 32 2 4 128 4 8 1024 64 8 128 256 16 2048 8 2 128 1 256 256 4096 128 1 4096 2048 4 16 16 128 8 16 4 16 4 16 8 1
646
5 4 4096 16 64 1024 4096 256 64 256 16 4 1024 16 2048 1 4 16 8 128 16 8 2 4096 256 128 4096 32 4096 32 2048 2 1024 64 128 64 128 2048 4096 1024 64 1 2 2 128 4096 128 1 8 2 128 4096 4 64 2 2 64 256 32 4 4 1024 4 8 32 256 8 128 1 1 256 1024 16 16 2 4096 256 256 2 1 2048 1024 256 256 1 64 512 32 1 32 4096 16 16 1024 1024 64 1 128 2048 4 4096 256 1 1 64 16 512 128 16 512 2048 2 512 2 4096 16 2048 2 4 128 2048 2048 8 2048 1 16 1 256 2048 1024 2048 4096 4096 4 4 2048 64 128 256 2 512 8 1024 1 4096 1024 4096 2 16 256 128 256 32 64 256 16 512 1 32 4096 2048 64 2048 1 2048 29278 2 16 4096 128 512 128 4 8 4096 4 4 2 64 2048 2048 128 4 4096 1024 512 1 2048 32 2 512 8 16 2048 2 4 128 512 2 1024 512 4 256 64 128 8 8 8 128 4096 2 16 64 8 8 2048 128 8 128 64 2 128 16 16 8 64 1024 1024 64 2048 32 2048 512 64 2 32 4 2048 64 512 1 256 4096 256 8 1024 64 1 512 16 16 2 2 1 256 8 1 2048 4096 8 2048 256 256 16 8 2048 1024 512 8 2048 32 2 2048 8 1 4096 256 1 8 128 1024 4 8 512 4 2 8 2 128 512 32 2048 2 8 256 64 4 4 4 512 8 32 512 256 256 2 64 512 2048 1024 32 32 4096 64 4 128 8 1 1024 4 64 256 2 256 128 4096 2048 2 8 1 1 2048 32 2048 8 4 32 256 1024 4096 4096 1 16 1 64 256 4096 128 4 1 128 512 8 128 512 16 64 512 2048 128 2 2048 8 16 16 8 256 8 8 4 16 256 256 64 1024 4 16 4096 32 8 512 4096 1 16 32 2048 4096 128 30533 32 512 2048 4 2 128 2048 1 4096 512 1024 4096 16 1024 256 256 2 24504 256 1 32 4096 32 24714 16 1 128 4 128 4 2 1 32 256 256 1024 4 32 1024 256 2 2 8 2048 128 512 2048 2048 1 8 4 2048 1 4096 8 31881 1024 256 1 2 1024 1024 4096 1 1 256 16 2 1024 2048 32 4 16394 64 1 256 1 128 4096 1024 1024 4096 4096 256 4096 2 32 2048 4 32 8 4096 16 4 4 32 128 32 32 4096 1 1 4 64 8 4096 16 4096 256 512 256 512 1024 4096 256 256 256 64 1024 128 512 32 1 128 64 64 256 1024 256 128 16 64 64 2 16 8 32 16 16 2048 16 32 4 1024 2048 8 128 8 4096 2048 128 512 1 512 2048 1024 1 1 32 64 4 256 1 128 2048 32 512 512 8 256 512 256 128 16 128 256 4 8 2048 64 16 1 4096 8 16 512 512 32 1024 32 4096 512 8 32 2 2048 8 16 4 1 4 4096 4 2 4 1024 4096 256 2 4096 16 512 512 1 1024 1024 256 1 16 2 64 1024 16 1 2048 64 1024 8 16 16 2 64 16 2048 1 64 8 4 512 2048 256 4096 2 2 2 1 2 2 2048 4096 4 128 4 512 256 1024 16
479
75 32 8 8 512 256 64 1 128 16 32 128 1024 4 2048 16 2 8 64 1024 1024 512 1024 128 128 8 2048 1024 2048 4096 1 512 4096 8 512 256 8 4 8 5012 1 32 2048 256 16 8 2 256 16 64 128 1 512 1024 256 2 128 16 256 32 4096 8 2 4 2 512 128 128 32 2048 2 1 512 1 8 4 4096 1 8 128 64 2048 4 512 8 4 512 2 4 16 1024 4 4096 512 4 1024 4096 256 16 1024 1024 2 64 256 256 1 4096 512 1024 512 1 32 256 2048 1 16 16 128 4 8 4096 512 4096 16 512 8 512 32 256 1 128 16 8 2 128 128 512 1 512 128 8 8 1 16 4096 128 256 2 4096 8 2048 32 512 2048 32 256 128 4 8 4096 1024 1 16 1 16 64 4 4096 8 1024 2 256 2 512 2048 1024 1024 16 1024 16 512 2048 1 16 2 4096 32 4096 256 16 16 4 256 1024 1024 2048 64 1024 128 4096 256 32 512 1 8 2048 8 512 1 512 4096 128 2048 4 2048 2048 4096 256 4 128 16 2048 32 4 4096 1 512 256 1024 16 4 8 4096 2048 1024 1 512 32 8 4096 2 2 128 2 256 128 16 64 512 1024 128 512 1024 8 512 16 32 32 1024 64 128 2048 128 1024 1 16 64 2 64 4 8 32 2048 128 256 32 2048 256 4 1 2048 4096 2048 16 32 4 8 2048 1 2 4096 1024 8 512 64 32 128 512 4096 512 2048 4096 8 64 4 4 2048 4096 32 2048 64 1024 2048 2 64 256 2048 512 512 4096 8 2048 4096 2 1 2048 256 8 16 32 1 64 1024 8 4 8 256 256 1 1 512 4096 128 128 1 1 8 2 4 1024 128 16 4 1024 4 1024 128 2 32 512 64 1024 32 4 4096 1024 4096 32 2048 512 2 30762 4096 1024 512 512 4 64 512 512 32 128 1024 256 1 2048 16 512 1024 2 2 32 1024 8 64 2048 64 4096 64 4096 512 128 4 256 16 32 2 64 64 512 16 4 2048 16 512 1 64 256 2 2 8 1024 32 4096 1024 1024 128 512 64 256 64 16 2 8 512 2 4096 512 1 256 1 16 2 2 256 4 4 32 1 256 2048 4096 4096 256 2 4 8 8 64 64 128 256 16 1024 4 2 32 128 32 4 1 1024 8 2 256 1 2048 4 32
769
0 64 128 2 64 64 1024 512 4096 64 128 128 1 2 2 64 1024 64 128 4 512 4096 64 16 2 128 512 2048 1024 256 128 2048 128 4 1 16 32 2048 4096 1 4096 2 1 16 1024 2 4096 2048 16 128 1024 16 4 2048 4 4 1024 128 4096 1 4 32 64 32 1024 64 8 4 8 64 1024 128 1024 16 2048 128 512 256 4096 64 2048 2 2 512 32 1024 128 2 64 4 1 128 256 32 4096 128 1024 1 4 4096 128 64 1024 16 64 2048 1 14707 256 4096 64 64 256 128 64 512 1024 8 2 2048 16 2 8 1 256 4 2 4 1 4 1 1 16 256 512 64 32 16 4096 128 64 4 64 64 256 256 16 512 128 1024 64 256 256 2048 1024 1 128 2048 2048 32 8 4096 8 256 2 2048 16 64 512 8 4096 4 64 8 32 128 128 2 30184 2048 64 128 16 16 512 4096 4096 512 1024 2 8 2048 4 32 256 1024 2 64 2048 256 8 16 16 16 1024 4096 256 512 2 16 64 1 32 32 128 2 4 32 512 4096 8 1024 16 4 128 2 32 128 4 4 16 1 4096 2 2 4 8 128 128 1 1024 1024 64 32 128 16 2 256 128 4683 4 8 1024 16 1 1024 512 512 4 32 1 32 32 128 512 16 512 1 2 4 256 256 1 64 2 26225 512 256 8 2048 512 2 1 4096 128 8 2048 1024 32 64 4 4096 256 512 16 1024 8 1 2 64 128 1024 2 2 1 4 256 2 4096 8 2048 16 512 8 256 512 32 256 128 32 256 256 64 64 2 32 1024 1024 4 4 512 16 2048 512 8 128 1 512 2 8 2048 2048 1 8 4 2 32 2 4 26716 64 64 4096 512 128 64 64 1 8 512 16 512 2048 64 16 8 2048 2048 128 32 2048 2 2 4096 2 2 1024 1024 22459 4 256 16 4 2 256 8 2 512 2048 10111 128 64 2 64 128 4 2048 1024 1 2048 128 256 2048 16 4096 4 1 8 32 8 2 128 4 2048 1 8 8 1024 2 2048 2048 1 64 1024 32 2048 256 2 64 8 64 512 16 256 1 8 1024 2 1024 4096 16 8 1 64 16 32 512 128 8 8 1 64 128 256 128 2048 8 512 8 256 32 4096 1024 2048 32 2 4096 2 4096 64 8 8 32 128 16 512 512 128 512 64 2 512 4 1 128 256 16 4 2048 512 32 2 4 32 4 4 64 1024 512 4 32 2 256 8 16 16 1 2048 16 4096 8 8 16 256 16 512 256 2048 4 1 4096 1024 512 2048 8 2048 4 8 128 1 128 8 4096 2 16 1024 1 256 24537 8 4096 256 256 4 26529 16 32 64 1024 64 128 1024 32 2 4 16 4096 16 16 32 128 2048 2048 128 64 64 16 16 32 128 256 4 128 2 256 256 16 4096 256 4 256 8 2 2048 4 64 1 64 32 4 256 2048 512 16 4 32 4096 32 1 1 8 2 8 4 1024 8 16 2 256 256 2048 18687 512 2048 2048 2048 128 512 4 512 4 512 8 512 128 1024 4 256 64 1 2 1024 4096 256 1 512 512 8 4 1024 64 2 16 32 256 16 128 2048 256 1024 4 64 512 8 16 32 256 128 16 256 1 64 16 1024 4 1 256 13016 256 16 64 1024 512 8 8 512 32 2 2048 8 4 2048 256 2 32 1 2048 128 128 2 64 2 32 8 128 1 4 32 1 1 2 8 256 1024 4 64 16 32 64 2 4 2 64 4 512 32 1024 4096 512 16 1024 2048 1 256 16 1 64 512 64 64 2048 4 4 4 256 1 1024 16 4 64 128 8 128 2 1 256 6919 8 1024 1024 4 128 512 8 2 8 2 32 1024 1 64 16 1024 32 1024 32 256 512 1
752
95 32 1024 32 1024 64 128 4 2 256 512 1 1024 64 32 64 2048 4096 512 2 8 128 4 256 128 4096 32 32 8 31759 32 2048 64 4 4096 1 256 27682 32 2 128 2 16 2 8 4096 4096 64 1024 128 4 2048 2048 512 2048 4096 4 8 4 512 256 8 256 64 32 4 256 16 1 64 8 2048 512 16 128 128 1024 16 512 8 1 4 256 2048 2 512 2 128 8 1024 64 512 4 2 16 2 2048 4 16 256 1 2048 2 8 512 8 4 16 128 8 256 2 64 16 256 2 4 4096 1024 512 512 16 16 2048 128 1024 64 16 64 2048 4 8 8 2 16 8 64 16 2048 1 1024 512 16 4096 512 4096 4096 4 4 16 64 4 256 4 64 4 1 128 4096 1 512 8 16 2048 128 64 4 13137 4096 128 1024 4 4 2048 64 2 2048 2048 2048 32 4 8 32 128 4096 1 1 32 2048 1 64 16 1024 1024 16 4096 4096 16 512 16 4096 2 16 8 64 2 4096 2048 256 64 512 2 4 2048 512 16 4 512 128 4 1 4 1024 64 1 256 64 2 64 4 1 8 4096 1 4096 1 64 256 16 256 16 2 32 128 4 2048 4096 64 512 2048 1024 2 256 2048 256 1 4096 2048 8 512 1024 2 128 512 1024 4 1 4 16 4 1 16 2 8 32 4 16 16 4096 32 8 2048 512 128 16 64 16 16 32 32 1 2 4 64 256 2048 2048 1024 2048 32 32 128 8 8 4096 1 16 8 512 32 1 4 1024 8 16 256 2 64 1024 4096 1 4 1 128 1 22706 32 16 128 64 64 2 64 32 128 16 2 16 4 4096 256 128 1024 2048 32 1024 128 1024 16 512 128 4 512 16 32 2048 256 2 128 16 2 4 4 8 4 8 4096 4096 512 8 16 16 2 1 64 64 16 1024 512 16 16 32 16 512 1024 2 256 512 128 1024 128 256 16 256 8 32 4 8 2048 64 1024 16 128 2 128 16 128 512 512 4096 8 256 512 1 2048 4096 1 1024 128 128 128 4 512 512 1024 2048 16 32 512 4 2 512 4 1024 128 4 128 8 8 128 4 4096 512 8 4 128 2048 4096 1 32 4096 128 256 64 4096 32 4 512 64 128 256 1024 8 1 4 4096 4 256 512 4096 8 16 256 2 256 2 64 512 16 256 1024 2 1 4096 256 256 256 2 32 4096 4096 32 4096 8 4096 64 32 8 128 512 64 4096 256 64 64 4096 1024 2048 256 512 1 32 8 2 32 128 128 512 2 4 2 128 256 256 1 2048 256 32 32 2048 32 16 128 8 1024 16 4096 32 256 1024 128 64 1024 16 4 512 16 16 2048 64 1 8 4 4 8 1024 32 1024 4 1024 512 4 2 32 1024 4 64 128 256 32 16 2048 32 8 64 512 64 1024 1 1 2 1024 8 8 32 8 32 2 256 16 2048 2048 1 128 128 64 32 128 128 64 16 512 2 64 16 512 1028 4096 1 1 256 512 4 512 2048 512 512 4 8 16 8 256 128 64 16 8 8 4 2 64 32 1 64 512 64 64 8 64 512 2 128 4 32 512 1024 4096 4096 4 32 4 2048 2048 256 4 1 2 32 2 1024 128 128 256 16 32 16 512 4 4096 256 4096 2048 1024 64 2 1024 128 32 512 16 32 4096 16 2 2048 2 16 16 512 16 8 32 32 512 16 256 1024 2 256 4096 4 256 16 512 2048 64 16 4096 1024 64 64 128 256 128 256 2048 256 4096 8 1 4096 128 512 32 64 4096 32 512 4096 1024 4 2048 128 16 512 2 16 128 1 128 512 1 64 16 64 128 1 1 32 2 4 1024 4
971
67 512 1 4096 16 16 1 64 128 512 1024 1024 1024 4 2 128 512 128 8 1024 32 4 64 4 256 16 2 32 4096 8 32 4096 2048 64 4096 64 4 64 256 256 1 8 4096 1024 2048 8 128 1134 2048 16 4 1 128 2048 4 64 32 4 16849 256 16 2048 2 1 32 64 512 1 8 1 2 512 1 128 2048 16 1 8 8 2048 128 8 64 128 1 128 1 128 16 32 32 1 16 2 1024 64 32 2048 4096 4096 128 128 16 128 2048 4 8 2048 128 2048 8 8 23466 32 4 16 32 4 512 1 256 4 1 128 2048 2 32 4 1 1 64 64 2 512 4096 16 128 1 32 32 4 32 256 1 8 8 2 32 8 64 1024 4096 512 1 512 16 1 512 256 512 256 4 256 1024 512 1 2 128 512 16 4096 512 8 512 128 256 8 4 2 2 4096 16 128 16 4096 1024 16 1024 4 64 2 512 1 256 4096 2 4096 8 2048 16 1024 128 4 4096 128 2 4 64 64 32 128 2 2048 1 128 2048 4096 64 2 32 2048 4 32 2 8 2048 4096 4096 2048 2048 256 4096 8 2048 4 4 256 4 1 512 1 128 128 16 64 32 512 256 16 128 1 256 128 1024 1 512 4096 2 8 128 4 256 4 512 8 64 1 4096 1024 2 1024 16 2 16 1 64 128 8 1 8 64 512 4 512 1024 4 32 256 4 256 2 1 4096 2048 16 2 2048 8 512 16 128 2048 256 8 128 1 64 64 128 32 64 16 64 2 64 8 1024 4096 2048 1024 28895 128 8 4 256 64 16 1 32 16 4 32 32 4 4096 8 2 512 32 128 256 32 2 2 4 32 64 32 1 1024 8 128 2 2 4 32 2 512 512 4096 256 16 64 32 1024 2 128 512 1 128 64 4 16 256 2048 512 4 1 4 256 4096 1 2048 64 16 4 2 4096 8 512 64 1024 16 4096 256 4 4096 2 128 4 256 256 128 64 16 64 16 16 32 4096 256 2048 1024 2 256 32 64 32 4 64 2048 4096 128 2048 4 16 16 256 1024 2 4096 16 1 16 512 256 2048 512 512 8 512 128 1024 8 2048 4 128 2048 32 64 16 4 512 2 32 4 2 256 14403 2 4 512 256 2048 1 32 16 8 4096 4096 2 1024 128 8 4096 1024 27481 4096 128 16 32 16 512 256 128 2 4096 128 2048 16 64 2 2048 2 512 2048 512 128 128 512 64 4 32 128 2048 4 512 1 4 32 8 4 512 32 2 512 2 1 2 2 1 2 2 2 256 2 32 256 4 16 4096 1 2 128 4096 4 512 2048 64 128 256 4096 128 128 64 32 2048 32 2048 512 8 4 4096 1 1024 256 4 32 2048 64 256 256 2048 64 256 8 32 16 8 64 1 8 4 64 64 2 4096 512 4 512 4 4 64 1024 1024 4096 8 32 256 128 64 32 128 1 512 128 256 16 2048 1 128 2 128 32 64 1024 1024 4 4096 1024 2048 2048 2 512 64 8 4 32 1024 32 512 2 8 2 1 256 8 1024 16 512 23208 64 256 4 32 2 32 4096 4 8 256 512 32 256 8 2048 8 64 256 16 2 64 1024 512 1 1 8 16 512 256 4096 2048 16 1 128 1024 64 32 128 4 1 4096 256 1 2 32 1024 512 8 2048 2048 16 2048 26759 1 32 1024 2048 16 1024 4096 4096 16 32 64 2 2048 256 128 4096 2048 2 2 16 4 4096 1024 2 32 1 512 64 8 512 4 512 16 8 4 32 8 4096 32 1024 16 4096 8 512 8 256 64 32 64 256 16 1024 8 4096 1024 8 512 4 8 4096 256 16 16 256 1024 2 2048 2048 16 64 64 1 4096 32 512 4 256 1024 128 1 32 4096 8 2048 256 4096 4096 2 16 512 32 1 256 256 4 8 256 4 512 4096 4 128 8 64 2 4096 4096 8 32 2 8 128 32 2048 512 4 512 16 256 8 1 8 256 1024 8 2048 64 16 32 1 16 256 512 64 1 16 32 16 2048 4096 2048 64 512 1024 32 512 2048 32 64 2048 8 2048 8 512 4096 1 4096 512 4 8 1 256 128 1024 1024 4096 2 256 8 1 4 1 512 64 512 256 256 1 512 32 4096 64 16 1024 2048 256 256 16 256 8 4 128 256 256 128 256 1 2 16 256 4096 1024 1024 2048 64 2 4 2048 8 4 2 8 16 64 128 16 2048 1024 2048 1024 2 64 1 1 1 32 512 512 16 16 128 1 16 2 4096 512 512 1024 1024 4 4 4 4 8 512 4096 16 128 32 4 512 16 64 32 1 2 4 2 2 2 1024 128 256 32 2048 4 512 1024 4 512 64 2 2048 16 4096 2048 1 2048 512 1 128 2 2 8 32 4 8
